{
	"info": {
		"_postman_id": "d0842fa8-7153-45b2-8607-d068fc06fa87",
		"name": "Enchere Backend",
		"schema": "https://schema.getpostman.com/json/collection/v2.1.0/collection.json"
	},
	"item": [
		{
			"name": "Back Office",
			"item": [
				{
					"name": "Login admin",
					"request": {
						"method": "POST",
						"header": [],
						"body": {
							"mode": "raw",
							"raw": "{\r\n    \"email\":\"jean@gmail.com\",\r\n    \"mdp\":\"12345\"\r\n}",
							"options": {
								"raw": {
									"language": "json"
								}
							}
						},
						"url": {
							"raw": "http://localhost:8080/admins/login",
							"protocol": "http",
							"host": [
								"localhost"
							],
							"port": "8080",
							"path": [
								"admins",
								"login"
							]
						}
					},
					"response": []
				},
				{
					"name": "getCategorie",
					"request": {
						"method": "GET",
						"header": [
							{
								"key": "admin_token",
								"value": "486ced482ad2ad916aac81104d1d88895d45dc64",
								"type": "default"
							}
						],
						"url": {
							"raw": "http://localhost:8090/categories",
							"protocol": "http",
							"host": [
								"localhost"
							],
							"port": "8090",
							"path": [
								"categories"
							]
						}
					},
					"response": []
				}
			]
		},
		{
			"name": "Front Office",
			"item": [
				{
					"name": "Liste encheres",
					"request": {
						"method": "GET",
						"header": [],
						"url": {
							"raw": "http://localhost:8090/enchere",
							"protocol": "http",
							"host": [
								"localhost"
							],
							"port": "8090",
							"path": [
								"enchere"
							]
						}
					},
					"response": []
				},
				{
					"name": "Fiche enchere",
					"request": {
						"method": "GET",
						"header": [],
						"url": {
							"raw": "http://localhost:8090/enchere/1",
							"protocol": "http",
							"host": [
								"localhost"
							],
							"port": "8090",
							"path": [
								"enchere",
								"1"
							]
						}
					},
					"response": []
				},
				{
					"name": "Mise enchere",
					"request": {
						"method": "POST",
						"header": [
							{
								"key": "user_token",
								"value": "fgbdfgdfgg",
								"type": "default"
							}
						],
						"body": {
							"mode": "raw",
							"raw": "{\r\n    \"montant\": 4500\r\n}",
							"options": {
								"raw": {
									"language": "json"
								}
							}
						},
						"url": {
							"raw": "http://localhost:8080/enchere/1/mise",
							"protocol": "http",
							"host": [
								"localhost"
							],
							"port": "8080",
							"path": [
								"enchere",
								"1",
								"mise"
							]
						}
					},
					"response": []
				}
			]
		}
	]
}