{
	"info": {
		"_postman_id": "a628c098-4b41-486f-8f5b-2f4337704325",
		"name": "Enchere Backend",
		"schema": "https://schema.getpostman.com/json/collection/v2.1.0/collection.json"
	},
	"item": [
		{
			"name": "Back Office",
			"item": [
				{
					"name": "Login admin",
					"request": {
						"method": "POST",
						"header": [],
						"body": {
							"mode": "raw",
							"raw": "{\r\n    \"email\":\"jean@gmail.com\",\r\n    \"mdp\":\"12345\"\r\n}",
							"options": {
								"raw": {
									"language": "json"
								}
							}
						},
						"url": {
							"raw": "http://localhost:8090/admins/login",
							"protocol": "http",
							"host": [
								"localhost"
							],
							"port": "8090",
							"path": [
								"admins",
								"login"
							]
						}
					},
					"response": []
				},
				{
					"name": "getCategorie",
					"request": {
						"method": "GET",
						"header": [
							{
								"key": "admin_token",
								"value": "486ced482ad2ad916aac81104d1d88895d45dc64",
								"type": "default"
							}
						],
						"url": {
							"raw": "http://localhost:8090/categories",
							"protocol": "http",
							"host": [
								"localhost"
							],
							"port": "8090",
							"path": [
								"categories"
							]
						}
					},
					"response": []
				},
				{
					"name": "liste demande",
					"request": {
						"method": "GET",
						"header": [
							{
								"key": "admin_token",
								"value": "c929c56eff150b2c75fbe3fd51641ec0affd7b47",
								"type": "default"
							}
						],
						"url": {
							"raw": "http://localhost:8090/rechargement",
							"protocol": "http",
							"host": [
								"localhost"
							],
							"port": "8090",
							"path": [
								"rechargement"
							]
						}
					},
					"response": []
				},
				{
					"name": "refuser demande de rechargement",
					"request": {
						"method": "DELETE",
						"header": [
							{
								"key": "admin_token",
								"value": "c929c56eff150b2c75fbe3fd51641ec0affd7b47",
								"type": "default"
							}
						],
						"url": {
							"raw": "http://localhost:8090/rechargement/1",
							"protocol": "http",
							"host": [
								"localhost"
							],
							"port": "8090",
							"path": [
								"rechargement",
								"1"
							]
						}
					},
					"response": []
				},
				{
					"name": "accepter rechargement",
					"request": {
						"method": "PUT",
						"header": [
							{
								"key": "admin_token",
								"value": "c929c56eff150b2c75fbe3fd51641ec0affd7b47",
								"type": "default"
							}
						],
						"url": {
							"raw": "http://localhost:8090/rechargement/1",
							"protocol": "http",
							"host": [
								"localhost"
							],
							"port": "8090",
							"path": [
								"rechargement",
								"1"
							]
						}
					},
					"response": []
				},
				{
					"name": "nouvelle demande de rechargement de compte",
					"request": {
						"method": "POST",
						"header": [
							{
								"key": "user_token",
								"value": "9ac07f6d24a50fbb228defb356cff855cb335168",
								"type": "default"
							}
						],
						"body": {
							"mode": "raw",
							"raw": "{\r\n    \"montant\":300000\r\n}",
							"options": {
								"raw": {
									"language": "json"
								}
							}
						},
						"url": {
							"raw": "http://localhost:8090/rechargement/demande",
							"protocol": "http",
							"host": [
								"localhost"
							],
							"port": "8090",
							"path": [
								"rechargement",
								"demande"
							]
						}
					},
					"response": []
				},
				{
					"name": "Login user",
					"request": {
						"method": "POST",
						"header": [],
						"body": {
							"mode": "raw",
							"raw": "{\r\n    \"email\":\"jean@gmail.com\",\r\n    \"mdp\":\"1234\"\r\n}",
							"options": {
								"raw": {
									"language": "json"
								}
							}
						},
						"url": {
							"raw": "http://localhost:8090/user/login",
							"protocol": "http",
							"host": [
								"localhost"
							],
							"port": "8090",
							"path": [
								"user",
								"login"
							]
						}
					},
					"response": []
				}
			]
		},
		{
			"name": "Front Office",
			"item": [
				{
					"name": "Liste encheres",
					"request": {
						"method": "GET",
						"header": [],
						"url": {
							"raw": "http://localhost:8090/enchere",
							"protocol": "http",
							"host": [
								"localhost"
							],
							"port": "8090",
							"path": [
								"enchere"
							]
						}
					},
					"response": []
				},
				{
					"name": "Fiche enchere",
					"request": {
						"method": "GET",
						"header": [],
						"url": {
							"raw": "http://localhost:8090/enchere/1",
							"protocol": "http",
							"host": [
								"localhost"
							],
							"port": "8090",
							"path": [
								"enchere",
								"1"
							]
						}
					},
					"response": []
				},
				{
					"name": "Mise enchere",
					"request": {
						"method": "POST",
						"header": [
							{
								"key": "user_token",
								"value": "fgbdfgdfgg",
								"type": "default"
							}
						],
						"body": {
							"mode": "raw",
							"raw": "{\r\n    \"montant\": 4500\r\n}",
							"options": {
								"raw": {
									"language": "json"
								}
							}
						},
						"url": {
							"raw": "http://localhost:8080/enchere/1/mise",
							"protocol": "http",
							"host": [
								"localhost"
							],
							"port": "8080",
							"path": [
								"enchere",
								"1",
								"mise"
							]
						}
					},
					"response": []
				},
				{
					"name": "Recherche multi-criteres",
					"protocolProfileBehavior": {
						"disableBodyPruning": true
					},
					"request": {
						"method": "GET",
						"header": [],
						"body": {
							"mode": "raw",
							"raw": "{\r\n    \"idCategorie\": [1]\r\n}",
							"options": {
								"raw": {
									"language": "json"
								}
							}
						},
						"url": {
							"raw": "http://localhost:8090/enchere/recherche",
							"protocol": "http",
							"host": [
								"localhost"
							],
							"port": "8090",
							"path": [
								"enchere",
								"recherche"
							]
						}
					},
					"response": []
				}
			]
		}
	]
}