{
	"info": {
		"_postman_id": "f1e359d2-d589-47da-836e-2225e24343d6",
		"name": "Enchere Backend",
		"schema": "https://schema.getpostman.com/json/collection/v2.1.0/collection.json"
	},
	"item": [
		{
			"name": "Back Office",
			"item": [
				{
					"name": "Login admin",
					"request": {
						"method": "POST",
						"header": [],
						"body": {
							"mode": "raw",
							"raw": "{\r\n    \"email\":\"jean@gmail.com\",\r\n    \"mdp\":\"12345\"\r\n}",
							"options": {
								"raw": {
									"language": "json"
								}
							}
						},
						"url": {
							"raw": "https://enchereandy-production.up.railway.app/admins/login",
							"protocol": "https",
							"host": [
								"enchereandy-production",
								"up",
								"railway",
								"app"
							],
							"path": [
								"admins",
								"login"
							]
						}
					},
					"response": []
				},
				{
					"name": "getCategorie",
					"request": {
						"method": "GET",
						"header": [
							{
								"key": "admin_token",
								"value": "486ced482ad2ad916aac81104d1d88895d45dc64",
								"type": "default"
							}
						],
						"url": {
							"raw": "https://enchereandy-production.up.railway.app/categories",
							"protocol": "https",
							"host": [
								"enchereandy-production",
								"up",
								"railway",
								"app"
							],
							"path": [
								"categories"
							]
						}
					},
					"response": []
				},
				{
					"name": "liste demande",
					"request": {
						"method": "GET",
						"header": [
							{
								"key": "admin_token",
								"value": "c929c56eff150b2c75fbe3fd51641ec0affd7b47",
								"type": "default"
							}
						],
						"url": {
							"raw": "https://enchereandy-production.up.railway.app/rechargement",
							"protocol": "https",
							"host": [
								"enchereandy-production",
								"up",
								"railway",
								"app"
							],
							"path": [
								"rechargement"
							]
						}
					},
					"response": []
				},
				{
					"name": "refuser demande de rechargement",
					"request": {
						"method": "DELETE",
						"header": [
							{
								"key": "admin_token",
								"value": "c929c56eff150b2c75fbe3fd51641ec0affd7b47",
								"type": "default"
							}
						],
						"url": {
							"raw": "https://enchereandy-production.up.railway.app/rechargement/1",
							"protocol": "https",
							"host": [
								"enchereandy-production",
								"up",
								"railway",
								"app"
							],
							"path": [
								"rechargement",
								"1"
							]
						}
					},
					"response": []
				},
				{
					"name": "accepter rechargement",
					"request": {
						"method": "PUT",
						"header": [
							{
								"key": "admin_token",
								"value": "c929c56eff150b2c75fbe3fd51641ec0affd7b47",
								"type": "default"
							}
						],
						"url": {
							"raw": "https://enchereandy-production.up.railway.app/rechargement/1",
							"protocol": "https",
							"host": [
								"enchereandy-production",
								"up",
								"railway",
								"app"
							],
							"path": [
								"rechargement",
								"1"
							]
						}
					},
					"response": []
				},
				{
					"name": "nouvelle demande de rechargement de compte",
					"request": {
						"method": "POST",
						"header": [
							{
								"key": "user_token",
								"value": "9ac07f6d24a50fbb228defb356cff855cb335168",
								"type": "default"
							}
						],
						"body": {
							"mode": "raw",
							"raw": "{\r\n    \"montant\":300000\r\n}",
							"options": {
								"raw": {
									"language": "json"
								}
							}
						},
						"url": {
							"raw": "https://enchereandy-production.up.railway.app/rechargement/demande",
							"protocol": "https",
							"host": [
								"enchereandy-production",
								"up",
								"railway",
								"app"
							],
							"path": [
								"rechargement",
								"demande"
							]
						}
					},
					"response": []
				}
			]
		},
		{
			"name": "Front Office",
			"item": [
				{
					"name": "Liste encheres",
					"request": {
						"method": "GET",
						"header": [],
						"url": {
							"raw": "https://enchereandy-production.up.railway.app/enchere",
							"protocol": "https",
							"host": [
								"enchereandy-production",
								"up",
								"railway",
								"app"
							],
							"path": [
								"enchere"
							]
						}
					},
					"response": []
				},
				{
					"name": "Fiche enchere",
					"request": {
						"method": "GET",
						"header": [],
						"url": {
							"raw": "https://enchereandy-production.up.railway.app/enchere/1",
							"protocol": "https",
							"host": [
								"enchereandy-production",
								"up",
								"railway",
								"app"
							],
							"path": [
								"enchere",
								"1"
							]
						}
					},
					"response": []
				},
				{
					"name": "Mise enchere",
					"request": {
						"method": "POST",
						"header": [
							{
								"key": "user_token",
								"value": "f7ae56b7760fa2f8df13dac9d6b6c51925ad4772",
								"type": "default"
							}
						],
						"body": {
							"mode": "raw",
							"raw": "{\r\n    \"montant\": 8000\r\n}",
							"options": {
								"raw": {
									"language": "json"
								}
							}
						},
						"url": {
							"raw": "https://enchereandy-production.up.railway.app/enchere/1/mise",
							"protocol": "https",
							"host": [
								"enchereandy-production",
								"up",
								"railway",
								"app"
							],
							"path": [
								"enchere",
								"1",
								"mise"
							]
						}
					},
					"response": []
				},
				{
					"name": "Recherche multi-criteres",
					"protocolProfileBehavior": {
						"disableBodyPruning": true
					},
					"request": {
						"method": "GET",
						"header": [],
						"body": {
							"mode": "raw",
							"raw": "{\r\n    \"idCategorie\": [1]\r\n}",
							"options": {
								"raw": {
									"language": "json"
								}
							}
						},
						"url": {
							"raw": "https://enchereandy-production.up.railway.app/enchere/recherche",
							"protocol": "https",
							"host": [
								"enchereandy-production",
								"up",
								"railway",
								"app"
							],
							"path": [
								"enchere",
								"recherche"
							]
						}
					},
					"response": []
				}
			]
		},
		{
			"name": "Mobile",
			"item": [
				{
					"name": "Login user",
					"request": {
						"method": "POST",
						"header": [],
						"body": {
							"mode": "raw",
							"raw": "{\r\n    \"email\":\"jack@gmail.com\",\r\n    \"mdp\":\"1234\"\r\n}",
							"options": {
								"raw": {
									"language": "json"
								}
							}
						},
						"url": {
							"raw": "https://enchereandy-production.up.railway.app/user/login",
							"protocol": "https",
							"host": [
								"enchereandy-production",
								"up",
								"railway",
								"app"
							],
							"path": [
								"user",
								"login"
							]
						}
					},
					"response": []
				},
				{
					"name": "Inscription User",
					"request": {
						"method": "POST",
						"header": [],
						"body": {
							"mode": "raw",
							"raw": "{\r\n    \"nom\": \"Midera\",\r\n    \"email\": \"mdr@gmail.com\",\r\n    \"mdp\": \"123456\"\r\n}",
							"options": {
								"raw": {
									"language": "json"
								}
							}
						},
						"url": {
							"raw": "https://enchereandy-production.up.railway.app/user",
							"protocol": "https",
							"host": [
								"enchereandy-production",
								"up",
								"railway",
								"app"
							],
							"path": [
								"user"
							]
						}
					},
					"response": []
				},
				{
					"name": "Mes enchères",
					"request": {
						"method": "GET",
						"header": [
							{
								"key": "user_token",
								"value": "edf056f3556884856439c05300b28aa296902ba",
								"type": "default"
							}
						],
						"url": {
							"raw": "https://enchereandy-production.up.railway.app/enchere/mine",
							"protocol": "https",
							"host": [
								"enchereandy-production",
								"up",
								"railway",
								"app"
							],
							"path": [
								"enchere",
								"mine"
							]
						}
					},
					"response": []
				},
				{
					"name": "Ajouter enchère",
					"request": {
						"method": "POST",
						"header": [
							{
								"key": "user_token",
								"value": "14e8a8f831bd6a04a2c01b0fb756cd4ae5c65a4a",
								"type": "default"
							}
						],
						"body": {
							"mode": "raw",
							"raw": "{\r\n    \"dateDebut\": \"2023-01-20\",\r\n    \"nom\": \"Produit 1\",\r\n    \"description\": \"description 1\",\r\n    \"categorie\": {\r\n        \"id\": 1\r\n    },\r\n    \"prixMinimalVente\": 5000,\r\n    \"duree\": 24\r\n}",
							"options": {
								"raw": {
									"language": "json"
								}
							}
						},
						"url": {
							"raw": "https://enchereandy-production.up.railway.app/enchere/new",
							"protocol": "https",
							"host": [
								"enchereandy-production",
								"up",
								"railway",
								"app"
							],
							"path": [
								"enchere",
								"new"
							]
						}
					},
					"response": []
				}
			]
		}
	]
}