{
	"info": {
		"_postman_id": "0e51301b-dda9-42c6-820c-a2d43c1f353d",
		"name": "Enchere Backend",
		"schema": "https://schema.getpostman.com/json/collection/v2.1.0/collection.json"
	},
	"item": [
		{
			"name": "Login admin",
			"request": {
				"method": "POST",
				"header": [],
				"body": {
					"mode": "raw",
					"raw": "{\r\n    \"email\":\"jean@gmail.com\",\r\n    \"mdp\":\"12345\"\r\n}",
					"options": {
						"raw": {
							"language": "json"
						}
					}
				},
				"url": {
					"raw": "http://localhost:8080/admins/login",
					"protocol": "http",
					"host": [
						"localhost"
					],
					"port": "8080",
					"path": [
						"admins",
						"login"
					]
				}
			},
			"response": []
		},
		{
			"name": "getCategorie",
			"request": {
				"method": "GET",
				"header": [
					{
						"key": "admin_token",
						"value": "486ced482ad2ad916aac81104d1d88895d45dc64",
						"type": "default"
					}
				],
				"url": {
					"raw": "http://localhost:8090/categories",
					"protocol": "http",
					"host": [
						"localhost"
					],
					"port": "8090",
					"path": [
						"categories"
					]
				}
			},
			"response": []
		},
		{
			"name": "New Request",
			"request": {
				"method": "GET",
				"header": []
			},
			"response": []
		}
	]
}